_RB0 30 0 ABS 0
_RB1 31 0 ABS 0
_RB2 32 0 ABS 0
_RB3 33 0 ABS 0
_RB4 34 0 ABS 0
_RB5 35 0 ABS 0
_RB6 36 0 ABS 0
_RB7 37 0 ABS 0
__S0 800 0 ABS 0
__S1 73 0 ABS 0
__S2 0 0 ABS 0
__S3 0 0 ABS 0
__Hintentry 0 0 CODE 0
__Lintentry 0 0 CODE 0
_IOCB 96 0 ABS 0
_WPUB 95 0 ABS 0
_main 749 0 CODE 0
___sp 0 0 STACK 2
btemp 7E 0 ABS 0
start 0 0 CODE 0
_TRISB 86 0 ABS 0
reset_vec 0 0 CODE 0
_PORTB 6 0 ABS 0
wtemp0 7E 0 ABS 0
__Hconfig 2008 0 CONFIG 4
__Lconfig 0 0 CONFIG 4
__Hram 0 0 ABS 0
__Lram 0 0 ABS 0
__Hfunctab 0 0 ENTRY 0
__Lfunctab 0 0 ENTRY 0
_OPTION_REG 81 0 ABS 0
__Hcommon 0 0 ABS 0
__Lcommon 0 0 ABS 0
__Heeprom_data 0 0 EEDATA 3
__Leeprom_data 0 0 EEDATA 3
___int_sp 0 0 STACK 2
_ANSELH 189 0 ABS 0
__Habs1 0 0 ABS 0
__Labs1 0 0 ABS 0
__Hsfr0 0 0 ABS 0
__Lsfr0 0 0 ABS 0
__Hsfr1 0 0 ABS 0
__Lsfr1 0 0 ABS 0
__Hsfr2 0 0 ABS 0
__Lsfr2 0 0 ABS 0
__Hsfr3 0 0 ABS 0
__Lsfr3 0 0 ABS 0
___stackhi 0 0 ABS 0
__Hcode 0 0 ABS 0
__Lcode 0 0 ABS 0
__Hinit 0 0 CODE 0
__Linit 0 0 CODE 0
__end_of_main 7FC 0 CODE 0
__Htext 0 0 ABS 0
__Ltext 0 0 ABS 0
end_of_initialization 7FC 0 CODE 0
___stacklo 0 0 ABS 0
__Hstrings 0 0 ABS 0
__Lstrings 0 0 ABS 0
__Hbank0 0 0 ABS 0
__Lbank0 0 0 ABS 0
__Hbank1 0 0 ABS 0
__Lbank1 0 0 ABS 0
__Hbank2 0 0 ABS 0
__Lbank2 0 0 ABS 0
__Hbank3 0 0 ABS 0
__Lbank3 0 0 ABS 0
___latbits 2 0 ABS 0
__Hpowerup 0 0 CODE 0
__Lpowerup 0 0 CODE 0
__Hclrtext 0 0 ABS 0
__Lclrtext 0 0 ABS 0
__end_of__initialization 7FC 0 CODE 0
__Hstack 0 0 STACK 2
__Lstack 0 0 STACK 2
__Hspace_0 800 0 ABS 0
__Lspace_0 0 0 ABS 0
__Hspace_1 73 0 ABS 0
__Lspace_1 0 0 ABS 0
__Hspace_2 0 0 ABS 0
__Lspace_2 0 0 ABS 0
__Hcinit 800 0 CODE 0
__Lcinit 7FC 0 CODE 0
__Hspace_3 0 0 ABS 0
__Lspace_3 0 0 ABS 0
__size_of_main 0 0 ABS 0
__Hspace_4 400F 0 ABS 0
__Lspace_4 0 0 ABS 0
__Hend_init 3 0 CODE 0
__Lend_init 0 0 CODE 0
__Hreset_vec 0 0 CODE 0
__Lreset_vec 0 0 CODE 0
intlevel0 0 0 ENTRY 0
intlevel1 0 0 ENTRY 0
intlevel2 0 0 ENTRY 0
intlevel3 0 0 ENTRY 0
intlevel4 0 0 ENTRY 0
intlevel5 0 0 ENTRY 0
__HcstackCOMMON 0 0 ABS 0
__LcstackCOMMON 0 0 ABS 0
__pcstackCOMMON 70 0 COMMON 1
start_initialization 7FC 0 CODE 0
__Hmaintext 0 0 ABS 0
__Lmaintext 0 0 ABS 0
__pmaintext 749 0 CODE 0
__initialization 7FC 0 CODE 0
%segments
reset_vec 0 5 CODE 0 0
cinit FF8 FFF CODE FF8 0
cstackCOMMON 70 72 COMMON 70 1
maintext E92 FF7 CODE E92 0
%locals
dist/default/production\Resistencias_pull_up.X.production.o
C:\Users\diego\AppData\Local\Temp\xcAs5q4.s
451 7FC 0 CODE 0
454 7FC 0 CODE 0
460 7FC 0 CODE 0
462 7FC 0 CODE 0
463 7FD 0 CODE 0
main.c
18 749 0 CODE 0
20 749 0 CODE 0
21 74C 0 CODE 0
22 74F 0 CODE 0
23 753 0 CODE 0
24 755 0 CODE 0
25 757 0 CODE 0
29 758 0 CODE 0
31 75E 0 CODE 0
33 76B 0 CODE 0
35 771 0 CODE 0
36 773 0 CODE 0
40 780 0 CODE 0
42 786 0 CODE 0
44 793 0 CODE 0
46 799 0 CODE 0
47 79B 0 CODE 0
51 7A8 0 CODE 0
53 7AE 0 CODE 0
55 7BB 0 CODE 0
57 7C1 0 CODE 0
58 7C3 0 CODE 0
62 7D0 0 CODE 0
64 7D6 0 CODE 0
66 7E3 0 CODE 0
68 7E9 0 CODE 0
69 7EB 0 CODE 0
